// Jest Snapshot v1, https://goo.gl/fbAQLP

exports[`DriverInput component tests should match snapshot 1`] = `
Array [
  <div
    className="MuiFormControl-root MuiTextField-root makeStyles-textField-2"
  >
    <div
      className="MuiInputBase-root MuiInput-root MuiInput-underline makeStyles-input-3 MuiInputBase-formControl MuiInput-formControl"
      onClick={[Function]}
    >
      <input
        aria-invalid={false}
        autoFocus={false}
        className="MuiInputBase-input MuiInput-input"
        disabled={false}
        onAnimationStart={[Function]}
        onBlur={[Function]}
        onChange={[Function]}
        onFocus={[Function]}
        required={false}
        type="text"
        value="Fernando Alonso"
      />
    </div>
  </div>,
  <svg
    aria-hidden={true}
    className="MuiSvgIcon-root makeStyles-searchIcon-1"
    focusable="false"
    onClick={[MockFunction]}
    viewBox="0 0 24 24"
  >
    <path
      d="M15.5 14h-.79l-.28-.27C15.41 12.59 16 11.11 16 9.5 16 5.91 13.09 3 9.5 3S3 5.91 3 9.5 5.91 16 9.5 16c1.61 0 3.09-.59 4.23-1.57l.27.28v.79l5 4.99L20.49 19l-4.99-5zm-6 0C7.01 14 5 11.99 5 9.5S7.01 5 9.5 5 14 7.01 14 9.5 11.99 14 9.5 14z"
    />
  </svg>,
]
`;
